
{    
    "development": {
        "PORT": 3000,
        "MONGODB_URI": "mongodb://localhost:27017/BSH_IonicPOC",
        "JWT_SECRET": "SECRET#123",
        "JWT_EXP": "2m"
    },
    "production": {
        "PORT":4300,
        "MONGODB_URI": "mongodb://localhost:27017/BSH_IonicPOC",
        "JWT_SECRET": "SECRET#123",
        "JWT_EXP": "2m"
    }
    
}